Lab 4: Mixed models and model selection
…
# A tibble: 2 × 2
  job_city callback_rate
  <chr>            <dbl>
1 Boston          0.0970
2 Chicago         0.0673

callback_adid <- df_resume %>%
  group_by(job_ad_id) %>%
  summarise(callback_rate = mean(received_callback))
callback_adid

# A tibble: 1,323 × 2
   job_ad_id callback_rate
       <dbl>         <dbl>
 1         1          0   
 2         2          0   
 3         3          0   
 4         4          0   
 5         5          0.25
 6         6          0   
 7         7          0   
 8         8          0   
 9         9          0   
10        10          0   
# ℹ 1,313 more rows
…
